src/z80.vcd
$date
	Thu Oct 30 18:26:18 2025
$end
$version
	Icarus Verilog
$end
$timescale
	1s
$end
$scope module test $end
$var reg 1 ! clk $end
$var reg 1 " reset_n $end
$scope module system $end
$var wire 1 ! clk $end
$var wire 1 " reset_n $end
$var wire 1 # wr_n $end
$var wire 8 $ uio_out [7:0] $end
$var wire 8 % uio_in [7:0] $end
$var wire 1 & rfsh_n $end
$var wire 1 ' rd_n $end
$var wire 1 ( mreq_n $end
$var wire 1 ) m1_n $end
$var wire 1 * iorq_n $end
$var wire 1 + halt_n $end
$var wire 1 , doe $end
$var wire 1 - busak_n $end
$var wire 16 . addr_bus [15:0] $end
$var parameter 1 / GND $end
$var parameter 1 0 VCC $end
$var reg 8 1 data_in [7:0] $end
$var reg 1 2 is_read $end
$var reg 6 3 leds [5:0] $end
$scope module z80 $end
$var wire 1 4 busrq_n $end
$var wire 1 5 cen $end
$var wire 1 ! clk $end
$var wire 8 6 di [7:0] $end
$var wire 1 7 int_n $end
$var wire 1 8 nmi_n $end
$var wire 1 " reset_n $end
$var wire 1 9 wait_n $end
$var wire 1 # wr_n $end
$var wire 1 & rfsh_n $end
$var wire 1 ' rd_n $end
$var wire 1 ( mreq_n $end
$var wire 1 ) m1_n $end
$var wire 1 * iorq_n $end
$var wire 1 + halt_n $end
$var wire 8 : dout [7:0] $end
$var wire 1 , doe $end
$var wire 1 - busak_n $end
$var wire 16 ; A [15:0] $end
$scope module tv80s $end
$var wire 1 4 busrq_n $end
$var wire 1 5 cen $end
$var wire 1 ! clk $end
$var wire 8 < di [7:0] $end
$var wire 1 7 int_n $end
$var wire 1 8 nmi_n $end
$var wire 1 " reset_n $end
$var wire 1 9 wait_n $end
$var wire 1 , write $end
$var wire 7 = tstate [6:0] $end
$var wire 1 & rfsh_n $end
$var wire 1 > no_read $end
$var wire 7 ? mcycle [6:0] $end
$var wire 1 ) m1_n $end
$var wire 1 @ iorq $end
$var wire 1 A intcycle_n $end
$var wire 1 + halt_n $end
$var wire 8 B dout [7:0] $end
$var wire 1 - busak_n $end
$var wire 16 C A [15:0] $end
$var parameter 32 D IOWait $end
$var parameter 32 E Mode $end
$var parameter 32 F T2Write $end
$var reg 8 G di_reg [7:0] $end
$var reg 1 * iorq_n $end
$var reg 1 ( mreq_n $end
$var reg 1 ' rd_n $end
$var reg 1 # wr_n $end
$scope module i_tv80_core $end
$var wire 1 4 busrq_n $end
$var wire 1 5 cen $end
$var wire 1 ! clk $end
$var wire 8 H di [7:0] $end
$var wire 8 I dinst [7:0] $end
$var wire 1 7 int_n $end
$var wire 1 8 nmi_n $end
$var wire 1 " reset_n $end
$var wire 1 9 wait_n $end
$var wire 1 , write $end
$var wire 3 J tstates [2:0] $end
$var wire 1 > no_read $end
$var wire 3 K mcycles_d [2:0] $end
$var wire 1 L iorq_i $end
$var wire 3 M Special_LD [2:0] $end
$var wire 4 N Set_BusB_To [3:0] $end
$var wire 4 O Set_BusA_To [3:0] $end
$var wire 3 P Set_Addr_To [2:0] $end
$var wire 1 Q SetEI $end
$var wire 1 R SetDI $end
$var wire 1 S Save_ALU $end
$var wire 1 T RstP $end
$var wire 16 U RegBusC [15:0] $end
$var wire 16 V RegBusB [15:0] $end
$var wire 16 W RegBusA [15:0] $end
$var wire 1 X Read_To_Reg $end
$var wire 1 Y Read_To_Acc $end
$var wire 1 Z PreserveC $end
$var wire 2 [ Prefix [1:0] $end
$var wire 1 \ LDZ $end
$var wire 1 ] LDW $end
$var wire 1 ^ LDSPHL $end
$var wire 1 _ JumpXY $end
$var wire 1 ` JumpE $end
$var wire 1 a Jump $end
$var wire 1 b Inc_WZ $end
$var wire 1 c Inc_PC $end
$var wire 4 d IncDec_16 [3:0] $end
$var wire 1 e I_SCF $end
$var wire 1 f I_RRD $end
$var wire 1 g I_RLD $end
$var wire 1 h I_RETN $end
$var wire 1 i I_INRC $end
$var wire 1 j I_DJNZ $end
$var wire 1 k I_CPL $end
$var wire 1 l I_CCF $end
$var wire 1 m I_BTR $end
$var wire 1 n I_BT $end
$var wire 1 o I_BC $end
$var wire 2 p IMode [1:0] $end
$var wire 1 q Halt $end
$var wire 8 r F_Out [7:0] $end
$var wire 1 s ExchangeRp $end
$var wire 1 t ExchangeRS $end
$var wire 1 u ExchangeDH $end
$var wire 1 v ExchangeAF $end
$var wire 1 w Call $end
$var wire 1 x Arith16 $end
$var wire 8 y ALU_Q [7:0] $end
$var wire 4 z ALU_Op [3:0] $end
$var parameter 32 { Flag_C $end
$var parameter 32 | Flag_H $end
$var parameter 32 } Flag_N $end
$var parameter 32 ~ Flag_P $end
$var parameter 32 !" Flag_S $end
$var parameter 32 "" Flag_X $end
$var parameter 32 #" Flag_Y $end
$var parameter 32 $" Flag_Z $end
$var parameter 32 %" IOWait $end
$var parameter 32 &" Mode $end
$var parameter 3 '" aBC $end
$var parameter 3 (" aDE $end
$var parameter 3 )" aIOA $end
$var parameter 3 *" aNone $end
$var parameter 3 +" aSP $end
$var parameter 3 ," aXY $end
$var parameter 3 -" aZI $end
$var reg 16 ." A [15:0] $end
$var reg 8 /" ACC [7:0] $end
$var reg 4 0" ALU_Op_r [3:0] $end
$var reg 1 1" Alternate $end
$var reg 8 2" Ap [7:0] $end
$var reg 1 3" Arith16_r $end
$var reg 1 4" Auto_Wait $end
$var reg 1 5" Auto_Wait_t1 $end
$var reg 1 6" Auto_Wait_t2 $end
$var reg 1 7" BTR_r $end
$var reg 8 8" BusA [7:0] $end
$var reg 1 9" BusAck $end
$var reg 8 :" BusB [7:0] $end
$var reg 1 ;" BusReq_s $end
$var reg 1 <" ClkEn $end
$var reg 8 =" DI_Reg [7:0] $end
$var reg 8 >" F [7:0] $end
$var reg 8 ?" Fp [7:0] $end
$var reg 1 @" Halt_FF $end
$var reg 8 A" I [7:0] $end
$var reg 16 B" ID16 [15:0] $end
$var reg 16 C" ID16_B [15:0] $end
$var reg 1 D" INT_s $end
$var reg 8 E" IR [7:0] $end
$var reg 2 F" ISet [1:0] $end
$var reg 2 G" IStatus [1:0] $end
$var reg 1 H" IncDecZ $end
$var reg 1 I" IntCycle $end
$var reg 1 J" IntE $end
$var reg 1 K" IntE_FF1 $end
$var reg 1 L" IntE_FF2 $end
$var reg 1 M" NMICycle $end
$var reg 1 N" NMI_s $end
$var reg 1 O" NextIs_XY_Fetch $end
$var reg 1 P" No_BTR $end
$var reg 1 Q" Oldnmi_n $end
$var reg 16 R" PC [15:0] $end
$var reg 16 S" PC16 [15:0] $end
$var reg 16 T" PC16_B [15:0] $end
$var reg 3 U" Pre_XY_F_M [2:0] $end
$var reg 1 V" PreserveC_r $end
$var reg 8 W" R [7:0] $end
$var reg 5 X" Read_To_Reg_r [4:0] $end
$var reg 3 Y" RegAddrA [2:0] $end
$var reg 3 Z" RegAddrA_r [2:0] $end
$var reg 3 [" RegAddrB [2:0] $end
$var reg 3 \" RegAddrB_r [2:0] $end
$var reg 3 ]" RegAddrC [2:0] $end
$var reg 16 ^" RegBusA_r [15:0] $end
$var reg 8 _" RegDIH [7:0] $end
$var reg 8 `" RegDIL [7:0] $end
$var reg 1 a" RegWEH $end
$var reg 1 b" RegWEL $end
$var reg 16 c" SP [15:0] $end
$var reg 16 d" SP16 [15:0] $end
$var reg 16 e" SP16_A [15:0] $end
$var reg 16 f" SP16_B [15:0] $end
$var reg 1 g" Save_ALU_r $end
$var reg 8 h" Save_Mux [7:0] $end
$var reg 1 i" T_Res $end
$var reg 16 j" TmpAddr [15:0] $end
$var reg 1 k" XY_Ind $end
$var reg 2 l" XY_State [1:0] $end
$var reg 1 m" Z16_r $end
$var reg 1 - busak_n $end
$var reg 8 n" dout [7:0] $end
$var reg 1 + halt_n $end
$var reg 1 A intcycle_n $end
$var reg 1 @ iorq $end
$var reg 1 o" last_mcycle $end
$var reg 1 p" last_tstate $end
$var reg 1 ) m1_n $end
$var reg 7 q" mc [6:0] $end
$var reg 7 r" mcycle [6:0] $end
$var reg 3 s" mcycles [2:0] $end
$var reg 1 & rfsh_n $end
$var reg 1 t" stop $end
$var reg 7 u" ts [6:0] $end
$var reg 7 v" tstate [6:0] $end
$scope function mcyc_to_number $end
$var reg 7 w" mcyc [6:0] $end
$upscope $end
$scope function number_to_bitvec $end
$var reg 3 x" num [2:0] $end
$upscope $end
$scope module i_alu $end
$var wire 4 y" ALU_Op [3:0] $end
$var wire 1 3" Arith16 $end
$var wire 8 z" BusA [7:0] $end
$var wire 8 {" BusB [7:0] $end
$var wire 8 |" F_In [7:0] $end
$var wire 6 }" IR [5:0] $end
$var wire 2 ~" ISet [1:0] $end
$var wire 1 m" Z16 $end
$var parameter 32 !# Flag_C $end
$var parameter 32 "# Flag_H $end
$var parameter 32 ## Flag_N $end
$var parameter 32 $# Flag_P $end
$var parameter 32 %# Flag_S $end
$var parameter 32 &# Flag_X $end
$var parameter 32 '# Flag_Y $end
$var parameter 32 (# Flag_Z $end
$var parameter 32 )# Mode $end
$var reg 8 *# BitMask [7:0] $end
$var reg 1 +# Carry7_v $end
$var reg 1 ,# Carry_v $end
$var reg 9 -# DAA_Q [8:0] $end
$var reg 8 .# F_Out [7:0] $end
$var reg 1 /# HalfCarry_v $end
$var reg 1 0# OverFlow_v $end
$var reg 8 1# Q [7:0] $end
$var reg 8 2# Q_t [7:0] $end
$var reg 8 3# Q_v [7:0] $end
$var reg 1 4# UseCarry $end
$scope function AddSub1 $end
$var reg 1 5# A $end
$var reg 1 6# B $end
$var reg 1 7# Carry_In $end
$var reg 1 8# Sub $end
$upscope $end
$scope function AddSub3 $end
$var reg 3 9# A [2:0] $end
$var reg 3 :# B [2:0] $end
$var reg 1 ;# Carry_In $end
$var reg 1 <# Sub $end
$upscope $end
$scope function AddSub4 $end
$var reg 4 =# A [3:0] $end
$var reg 4 ># B [3:0] $end
$var reg 1 ?# Carry_In $end
$var reg 1 @# Sub $end
$upscope $end
$upscope $end
$scope module i_mcode $end
$var wire 8 A# F [7:0] $end
$var wire 8 B# IR [7:0] $end
$var wire 2 C# ISet [1:0] $end
$var wire 1 I" IntCycle $end
$var wire 7 D# MCycle [6:0] $end
$var wire 1 M" NMICycle $end
$var parameter 32 E# Flag_C $end
$var parameter 32 F# Flag_H $end
$var parameter 32 G# Flag_N $end
$var parameter 32 H# Flag_P $end
$var parameter 32 I# Flag_S $end
$var parameter 32 J# Flag_X $end
$var parameter 32 K# Flag_Y $end
$var parameter 32 L# Flag_Z $end
$var parameter 32 M# Mode $end
$var parameter 3 N# aBC $end
$var parameter 3 O# aDE $end
$var parameter 3 P# aIOA $end
$var parameter 3 Q# aNone $end
$var parameter 3 R# aSP $end
$var parameter 3 S# aXY $end
$var parameter 3 T# aZI $end
$var reg 4 U# ALU_Op [3:0] $end
$var reg 1 x Arith16 $end
$var reg 1 w Call $end
$var reg 3 V# DDD [2:0] $end
$var reg 2 W# DPAIR [1:0] $end
$var reg 1 v ExchangeAF $end
$var reg 1 u ExchangeDH $end
$var reg 1 t ExchangeRS $end
$var reg 1 s ExchangeRp $end
$var reg 1 q Halt $end
$var reg 2 X# IMode [1:0] $end
$var reg 1 L IORQ $end
$var reg 1 o I_BC $end
$var reg 1 n I_BT $end
$var reg 1 m I_BTR $end
$var reg 1 l I_CCF $end
$var reg 1 k I_CPL $end
$var reg 1 j I_DJNZ $end
$var reg 1 i I_INRC $end
$var reg 1 h I_RETN $end
$var reg 1 g I_RLD $end
$var reg 1 f I_RRD $end
$var reg 1 e I_SCF $end
$var reg 4 Y# IncDec_16 [3:0] $end
$var reg 1 c Inc_PC $end
$var reg 1 b Inc_WZ $end
$var reg 1 a Jump $end
$var reg 1 ` JumpE $end
$var reg 1 _ JumpXY $end
$var reg 1 ^ LDSPHL $end
$var reg 1 ] LDW $end
$var reg 1 \ LDZ $end
$var reg 3 Z# MCycles [2:0] $end
$var reg 1 > NoRead $end
$var reg 2 [# Prefix [1:0] $end
$var reg 1 Z PreserveC $end
$var reg 1 Y Read_To_Acc $end
$var reg 1 X Read_To_Reg $end
$var reg 1 T RstP $end
$var reg 3 \# SSS [2:0] $end
$var reg 1 S Save_ALU $end
$var reg 1 R SetDI $end
$var reg 1 Q SetEI $end
$var reg 3 ]# Set_Addr_To [2:0] $end
$var reg 4 ^# Set_BusA_To [3:0] $end
$var reg 4 _# Set_BusB_To [3:0] $end
$var reg 3 `# Special_LD [2:0] $end
$var reg 3 a# TStates [2:0] $end
$var reg 1 , Write $end
$scope function is_cc_true $end
$var reg 8 b# FF [7:0] $end
$var reg 3 c# cc [2:0] $end
$upscope $end
$scope begin default_ed_block $end
$upscope $end
$upscope $end
$scope module i_reg $end
$var wire 3 d# AddrA [2:0] $end
$var wire 3 e# AddrB [2:0] $end
$var wire 3 f# AddrC [2:0] $end
$var wire 8 g# B [7:0] $end
$var wire 8 h# C [7:0] $end
$var wire 1 <" CEN $end
$var wire 8 i# D [7:0] $end
$var wire 8 j# DIH [7:0] $end
$var wire 8 k# DIL [7:0] $end
$var wire 8 l# DOAH [7:0] $end
$var wire 8 m# DOAL [7:0] $end
$var wire 8 n# DOBH [7:0] $end
$var wire 8 o# DOBL [7:0] $end
$var wire 8 p# DOCH [7:0] $end
$var wire 8 q# DOCL [7:0] $end
$var wire 8 r# E [7:0] $end
$var wire 8 s# H [7:0] $end
$var wire 8 t# L [7:0] $end
$var wire 1 a" WEH $end
$var wire 1 b" WEL $end
$var wire 1 ! clk $end
$var wire 16 u# IY [15:0] $end
$var wire 16 v# IX [15:0] $end
$upscope $end
$scope begin sync_inputs $end
$upscope $end
$upscope $end
$upscope $end
$upscope $end
$upscope $end
$upscope $end
$enddefinitions $end
$comment Show the parameter values. $end
$dumpall
b110 T#
b10 S#
b101 R#
b111 Q#
b100 P#
b1 O#
b0 N#
b0 M#
b110 L#
b101 K#
b11 J#
b111 I#
b10 H#
b1 G#
b100 F#
b0 E#
b0 )#
b110 (#
b101 '#
b11 &#
b111 %#
b10 $#
b1 ##
b100 "#
b0 !#
b110 -"
b10 ,"
b101 +"
b111 *"
b100 )"
b1 ("
b0 '"
b0 &"
b1 %"
b110 $"
b101 #"
b11 ""
b111 !"
b10 ~
b1 }
b100 |
b0 {
b1 F
b0 E
b1 D
10
0/
$end
#0
$dumpvars
bx v#
bx u#
bx t#
bx s#
bx r#
bx q#
bx p#
bx o#
bx n#
bx m#
bx l#
b0 k#
b0 j#
bx i#
bx h#
bx g#
bx f#
bx e#
bx d#
bx c#
bx b#
b100 a#
b0 `#
b0 _#
b0 ^#
b111 ]#
b0 \#
b0 [#
b1 Z#
b0 Y#
b11 X#
b0 W#
b0 V#
b0 U#
b1 D#
b0 C#
b0 B#
b11111111 A#
0@#
0?#
bx >#
bx =#
0<#
x;#
bx :#
bx 9#
08#
x7#
x6#
x5#
04#
bx 3#
bx 2#
bx 1#
x0#
x/#
bx0xxxx0x .#
bx -#
x,#
x+#
b1 *#
b0 ~"
b0 }"
b11111111 |"
bx {"
bx z"
b0 y"
bx x"
bx w"
b1 v"
b1 u"
0t"
b0 s"
b1 r"
b1 q"
0p"
xo"
b0 n"
0m"
b0 l"
0k"
b0 j"
0i"
b0 h"
0g"
b1 f"
b1111111111111111 e"
b0 d"
b1111111111111111 c"
0b"
0a"
b0 `"
b0 _"
bx ^"
bx ]"
bx \"
bx ["
bx Z"
bx Y"
b0 X"
b0 W"
0V"
b0 U"
b1 T"
b1 S"
b0 R"
0Q"
0P"
0O"
0N"
0M"
0L"
0K"
0J"
0I"
xH"
b0 G"
b0 F"
b0 E"
0D"
b1 C"
bx B"
b0 A"
0@"
b11111111 ?"
b11111111 >"
b0 ="
1<"
0;"
bx :"
09"
bx 8"
07"
06"
05"
04"
03"
b11111111 2"
01"
b0 0"
b11111111 /"
b0 ."
b0 z
bx y
0x
0w
0v
0u
0t
0s
bx0xxxx0x r
0q
b11 p
0o
0n
0m
0l
0k
0j
0i
0h
0g
0f
0e
b0 d
0c
0b
0a
0`
0_
0^
0]
0\
b0 [
0Z
0Y
0X
bx W
bx V
bx U
0T
0S
0R
0Q
b111 P
b0 O
b0 N
b0 M
0L
b1 K
b100 J
bz I
b0 H
b0 G
b0 C
b0 B
1A
0@
b1 ?
0>
b1 =
bz <
b0 ;
b0 :
19
18
17
bz 6
15
14
bx 3
x2
bx 1
b0 .
1-
0,
1+
1*
1)
1(
1'
1&
bz %
b0 $
1#
0"
0!
$end
#1
b0 ["
b0 e#
b0 Y"
b0 d#
b11 ]"
b11 f#
b0 \"
b0 Z"
b111110 1
12
1!
#2
0!
#3
1!
#4
0!
#5
b10 =
b10 u"
1o"
1Q"
0)
b10 v"
b1 s"
1!
1"
#6
0!
#7
b100 =
b100 u"
b111110 %
b111110 6
b111110 <
b111110 I
bx $
bx :
bx B
bx n"
b100 v"
0(
0'
1!
#8
0!
#9
b111110 `"
b111110 k#
b111110 _"
b111110 j#
b111110 h"
bx0xxxx0x r
bx0xxxx0x .#
b10000000 *#
bz %
bz 6
bz <
bz I
b111110 ="
b1000 =
b1000 u"
b111110 }"
b10 K
b10 Z#
b111 z
b111 U#
b11 W#
b110 \#
b111 V#
bx d"
b10 S"
b111110 f"
bx e"
02
b111110 G
b111110 H
1(
1'
b1000 v"
1)
0&
b111110 E"
b111110 B#
b1 R"
b1 W"
1!
#10
0!
#11
1i"
b0 d"
b1 f"
b1111111111111111 e"
b10000 =
b10000 u"
1p"
0o"
12
b10 s"
b10000 v"
0(
1!
#12
0!
#13
1X
b111 O
b111 ^#
1c
b11 J
b11 a#
b10 K
b10 Z#
0i"
b10 =
b10 u"
b10 ?
b10 q"
0p"
1o"
bx0xxxx1x r
bx0xxxx1x .#
18#
1<#
1@#
1?#
1(
b10 r"
b10 D#
b10 v"
1&
b111 0"
b111 y"
b1 .
b1 ;
b1 C
b1 ."
1!
#14
0!
#15
bx0xxxx0x r
bx0xxxx0x .#
15#
08#
b111 9#
0<#
b1111 =#
0@#
0?#
b100 =
b100 u"
b0 %
b0 6
b0 <
b0 I
b0 1
b11111111 8"
b11111111 z"
b11 Z"
b0 0"
b0 y"
b100 v"
0(
0'
1!
#16
0!
#17
b0 `"
b0 k#
b0 _"
b0 j#
b0 h"
1i"
bz %
bz 6
bz <
bz I
b0 ="
b1000 =
b1000 u"
b11 Y"
b11 d#
1p"
bx d"
b11 S"
b0 f"
bx e"
02
b0 G
b0 H
1(
1'
b1000 v"
b10 R"
1!
#18
0!
#19
bx0xxxx1x r
bx0xxxx1x .#
18#
1<#
1@#
1?#
b0 O
b0 ^#
0X
0c
b100 J
b100 a#
b10 K
b10 Z#
0i"
b0 d"
b1 f"
b1111111111111111 e"
b10 =
b10 u"
b1 ?
b1 q"
0p"
0o"
12
b10111 X"
b111 0"
b111 y"
b10 .
b10 ;
b10 C
b10 ."
b1 r"
b1 D#
0)
b10 v"
1!
#20
0!
#21
b111100 %
b111100 6
b111100 <
b111100 I
b100 =
b100 u"
b0 Y"
b0 d#
bx0xxxx0x r
bx0xxxx0x .#
x5#
08#
bx 9#
0<#
bx =#
0@#
0?#
b0 Z"
bx 8"
bx z"
b111100 1
0(
0'
b100 v"
b0 /"
b0 X"
b0 0"
b0 y"
1!
#22
0!
#23
bx0xxxx0x r
bx0xxxx0x .#
b111100 `"
b111100 k#
b111100 _"
b111100 j#
b111100 }"
b0 z
b0 U#
1Z
1S
1X
b111 O
b111 ^#
b1010 N
b1010 _#
b1 K
b1 Z#
b100 \#
b111100 h"
bx d"
b100 S"
b111100 f"
bx e"
b111100 ="
b1000 =
b1000 u"
bz %
bz 6
bz <
bz I
02
b111100 E"
b111100 B#
b11 R"
b10 W"
b1 .
b1 ;
b1 C
b1 ."
0&
b1000 v"
1)
b111100 G
b111100 H
1(
1'
1!
#24
0!
#25
b1 y
b1 1#
b1 2#
b0 r
b0 .#
00#
0,#
05#
06#
07#
0+#
b0 9#
b0 :#
0;#
0/#
b1 3#
b0 =#
b1 >#
1i"
b0 d"
b1 f"
b1111111111111111 e"
b10000 =
b10000 u"
b1 ["
b1 e#
b11 Y"
b11 d#
1p"
1o"
b1 \"
b11 Z"
b0 8"
b0 z"
b1 :"
b1 {"
b0 1
12
0(
b10000 v"
1V"
b1 s"
1!
#26
0!
#27
b1 `"
b1 k#
b1 _"
b1 j#
b1 h"
0i"
b10 =
b10 u"
0p"
b10111 X"
1g"
b11 .
b11 ;
b11 C
b11 ."
1&
0)
b10 v"
1(
1!
#28
0!
#29
b11010011 %
b11010011 6
b11010011 <
b11010011 I
b100 =
b100 u"
b111100 `"
b111100 k#
b111100 _"
b111100 j#
b0 Y"
b0 d#
b0 r
b0 .#
b1 2#
1Z
1S
b0 z
b0 U#
b111 O
b111 ^#
b1010 N
b1010 _#
1X
b111100 h"
b11010011 1
0(
0'
b100 v"
b1 /"
b1 $
b1 :
b1 B
b1 n"
b1 >"
b1 |"
b1 A#
b0 X"
0g"
1!
#30
0!
#31
b11010011 `"
b11010011 k#
b11010011 _"
b11010011 j#
b10 y
b10 1#
b0 r
b0 .#
b10 2#
b10 3#
b1 =#
b100 *#
b10011 }"
b11 K
b11 Z#
0Z
0S
b10 z
b10 U#
b0 O
b0 ^#
b0 N
b0 _#
0X
b1 W#
b11 \#
b10 V#
b11010011 h"
bx d"
b101 S"
b1111111111010011 f"
bx e"
b11 Y"
b11 d#
b11010011 ="
b1000 =
b1000 u"
bz %
bz 6
bz <
bz I
02
b1 8"
b1 z"
b11010011 E"
b11010011 B#
b100 R"
b11 W"
b10 .
b10 ;
b10 C
b10 ."
0&
b1000 v"
1)
b11010011 G
b11010011 H
1(
1'
1!
#32
0!
#33
bx y
bx 1#
bx0xxxx0x r
bx0xxxx0x .#
bx 2#
x0#
x,#
x5#
x6#
x7#
x+#
bx 9#
bx :#
x;#
x/#
bx 3#
bx =#
bx >#
1i"
b0 d"
b1 f"
b1111111111111111 e"
b10000 =
b10000 u"
b0 ["
b0 e#
b0 Y"
b0 d#
1p"
0o"
b0 \"
b0 Z"
bx 8"
bx z"
bx :"
bx {"
b111100 1
12
0(
b10000 v"
0V"
b11 s"
1!
#34
0!
#35
bx0xxxx1x r
bx0xxxx1x .#
18#
1<#
1@#
1?#
b111 N
b111 _#
b100 P
b100 ]#
1c
b11 J
b11 a#
b11 K
b11 Z#
0i"
b10 =
b10 u"
b10 ?
b10 q"
0p"
b10 0"
b10 y"
b100 .
b100 ;
b100 C
b100 ."
1&
b10 r"
b10 D#
b10 v"
1(
1!
#36
0!
#37
b100010 %
b100010 6
b100010 <
b100010 I
b100 =
b100 u"
b11 ["
b11 e#
bx0xxxx0x r
bx0xxxx0x .#
06#
08#
b0 :#
0<#
b1 >#
0@#
0?#
b0 ]"
b0 f#
b11 \"
b1 :"
b1 {"
b100010 1
0(
0'
b100 v"
bx $
bx :
bx B
bx n"
b0 0"
b0 y"
1!
#38
0!
#39
b100010 `"
b100010 k#
b100010 _"
b100010 j#
b100010 h"
1i"
bx d"
b110 S"
b100010 f"
bx e"
1p"
b100010 ="
b1000 =
b1000 u"
bz %
bz 6
bz <
bz I
02
b101 R"
b1000 v"
b100010 G
b100010 H
1(
1'
1!
#40
0!
#41
1@
1L
1,
b111 P
b111 ]#
b0 N
b0 _#
0c
b11 K
b11 Z#
0i"
b0 d"
b1 f"
b1111111111111111 e"
b10 =
b10 u"
b100 ?
b100 q"
0p"
1o"
bx0xxxx1x r
bx0xxxx1x .#
18#
1<#
1@#
1?#
12
b100 r"
b100 D#
b10 v"
b10 0"
b10 y"
b100100010 .
b100100010 ;
b100100010 C
b100100010 ."
1!
#42
0!
#43
b0 ["
b0 e#
bx0xxxx0x r
bx0xxxx0x .#
x6#
08#
bx :#
0<#
bx >#
0@#
0?#
b111100 1
bx :"
bx {"
b11 ]"
b11 f#
b0 \"
b1 $
b1 :
b1 B
b1 n"
b0 0"
b0 y"
15"
0*
0#
1!
#44
0!
#45
b100 =
b100 u"
b1 3
0*
0#
b100 v"
16"
1!
#46
0!
#47
bz `"
bz k#
bz _"
bz j#
bz h"
1i"
bx d"
bz f"
bx e"
1p"
bz ="
b1000 =
b1000 u"
b1000 v"
05"
bz G
bz H
1*
1#
1!
#48
0!
#49
0@
0,
0L
b100 J
b100 a#
b11 K
b11 Z#
0i"
b0 d"
b1 f"
b1111111111111111 e"
b10 =
b10 u"
b1 ?
b1 q"
0p"
0o"
bx0xxxx1x r
bx0xxxx1x .#
18#
1<#
1@#
1?#
b1 r"
b1 D#
0)
b10 v"
06"
b10 0"
b10 y"
b101 .
b101 ;
b101 C
b101 ."
1!
#50
0!
#51
bx0xxxx0x r
bx0xxxx0x .#
08#
0<#
0@#
0?#
b100 =
b100 u"
b11000011 %
b11000011 6
b11000011 <
b11000011 I
b11000011 1
bx $
bx :
bx B
bx n"
b0 0"
b0 y"
b100 v"
0(
0'
1!
#52
0!
#53
b11000011 `"
b11000011 k#
b11000011 _"
b11000011 j#
b11000011 h"
bx0xxxx0x r
bx0xxxx0x .#
b1 *#
bz %
bz 6
bz <
bz I
b11000011 ="
b1000 =
b1000 u"
b11 }"
b0 z
b0 U#
b11 K
b11 Z#
b0 W#
b0 V#
bx d"
b111 S"
b1111111111000011 f"
bx e"
02
b11000011 G
b11000011 H
1(
1'
b1000 v"
1)
0&
b11000011 E"
b11000011 B#
b110 R"
b100 W"
b11 .
b11 ;
b11 C
b11 ."
1!
#54
0!
#55
1i"
b0 d"
b1 f"
b1111111111111111 e"
b10000 =
b10000 u"
1p"
b11010011 1
12
b10000 v"
0(
1!
#56
0!
#57
1\
1c
b11 J
b11 a#
b11 K
b11 Z#
0i"
b10 =
b10 u"
b10 ?
b10 q"
0p"
1(
b10 r"
b10 D#
b10 v"
1&
b110 .
b110 ;
b110 C
b110 ."
1!
#58
0!
#59
b100 =
b100 u"
b10 %
b10 6
b10 <
b10 I
b10 1
b100 v"
0(
0'
1!
#60
0!
#61
b10 `"
b10 k#
b10 _"
b10 j#
b10 h"
1i"
bz %
bz 6
bz <
bz I
b10 ="
b1000 =
b1000 u"
1p"
bx d"
b1000 S"
b10 f"
bx e"
02
b10 G
b10 H
1(
1'
b1000 v"
b111 R"
1!
#62
0!
#63
1a
0\
1c
b11 K
b11 Z#
0i"
b0 d"
b1 f"
b1111111111111111 e"
b10 =
b10 u"
b100 ?
b100 q"
0p"
1o"
12
b10 j"
b111 .
b111 ;
b111 C
b111 ."
b100 r"
b100 D#
b10 v"
1!
#64
0!
#65
b0 %
b0 6
b0 <
b0 I
b100 =
b100 u"
b0 1
0(
0'
b100 v"
1!
#66
0!
#67
b0 `"
b0 k#
b0 _"
b0 j#
b0 h"
1i"
bx d"
b1001 S"
b0 f"
bx e"
1p"
b0 ="
b1000 =
b1000 u"
bz %
bz 6
bz <
bz I
02
b1000 R"
b1000 v"
b0 G
b0 H
1(
1'
1!
#68
0!
#69
0a
0c
b100 J
b100 a#
b11 K
b11 Z#
0i"
b10 =
b10 u"
b1 ?
b1 q"
0p"
0o"
b0 d"
b11 S"
b1 f"
b1111111111111111 e"
12
b1 r"
b1 D#
0)
b10 v"
b10 R"
b10 .
b10 ;
b10 C
b10 ."
1!
#70
0!
#71
b100 =
b100 u"
b111100 %
b111100 6
b111100 <
b111100 I
b111100 1
b100 v"
0(
0'
1!
#72
0!
#73
b111100 `"
b111100 k#
b111100 _"
b111100 j#
b111100 h"
bx0xxxx0x r
bx0xxxx0x .#
b10000000 *#
bz %
bz 6
bz <
bz I
b111100 ="
b1000 =
b1000 u"
b111100 }"
1Z
1S
1X
b111 O
b111 ^#
b1010 N
b1010 _#
b0 z
b0 U#
b1 K
b1 Z#
b11 W#
b100 \#
b111 V#
bx d"
b100 S"
b111100 f"
bx e"
02
b111100 G
b111100 H
1(
1'
b1000 v"
1)
0&
b111100 E"
b111100 B#
b11 R"
b101 W"
b100 .
b100 ;
b100 C
b100 ."
1!
#74
0!
#75
b10 y
b10 1#
b10 2#
b0 r
b0 .#
00#
0,#
05#
06#
07#
0+#
b0 9#
b0 :#
0;#
0/#
b10 3#
b1 =#
b1 >#
1i"
b0 d"
b1 f"
b1111111111111111 e"
b10000 =
b10000 u"
b1 ["
b1 e#
b11 Y"
b11 d#
1p"
1o"
b100010 1
12
b1 8"
b1 z"
b1 :"
b1 {"
b1 \"
b11 Z"
1V"
b1 s"
b10000 v"
0(
1!
#76
0!
#77
0i"
b10 =
b10 u"
b10 `"
b10 k#
b10 _"
b10 j#
0p"
b10 h"
1(
0)
b10 v"
1&
b10111 X"
1g"
b11 .
b11 ;
b11 C
b11 ."
1!
#78
0!
#79
b111100 `"
b111100 k#
b111100 _"
b111100 j#
b111100 h"
b100 =
b100 u"
b0 Y"
b0 d#
b11010011 %
b11010011 6
b11010011 <
b11010011 I
b11010011 1
b10 /"
b1 $
b1 :
b1 B
b1 n"
b0 X"
0g"
b100 v"
0(
0'
1!
#80
0!
#81
b11010011 `"
b11010011 k#
b11010011 _"
b11010011 j#
b11010011 h"
b11 y
b11 1#
b0 r
b0 .#
b11 2#
b11 3#
b10 =#
b100 *#
bz %
bz 6
bz <
bz I
b11010011 ="
b1000 =
b1000 u"
b11 Y"
b11 d#
b10011 }"
b11 K
b11 Z#
0Z
0S
b10 z
b10 U#
b0 O
b0 ^#
b0 N
b0 _#
0X
b1 W#
b11 \#
b10 V#
bx d"
b101 S"
b1111111111010011 f"
bx e"
b10 8"
b10 z"
02
b11010011 G
b11010011 H
1(
1'
b1000 v"
1)
0&
b11010011 E"
b11010011 B#
b100 R"
b110 W"
b101 .
b101 ;
b101 C
b101 ."
1!
#82
0!
